[{"idMov":1,"fechaMov":"1/2/2018","descripcionMov":"","importeMov":971476932.8,"IBAN":"MK14 963O 24MR 60RV 811"},
{"idMov":2,"fechaMov":"9/6/2017","descripcionMov":"","importeMov":884088914.57,"IBAN":"MU04 OUVS 3270 8116 7325 3990 602W LR"},
{"idMov":3,"fechaMov":"6/23/2017","descripcionMov":"","importeMov":682925582.36,"IBAN":"CH81 0746 4RXR NEDT VN7Y 8"},
{"idMov":4,"fechaMov":"6/21/2017","descripcionMov":"","importeMov":597276869.93,"IBAN":"FR91 7410 4870 82SY VPTS MA5P C90"},
{"idMov":5,"fechaMov":"7/24/2017","descripcionMov":"","importeMov":417358715.63,"IBAN":"PS30 WETT 0PNC TF9S WNNY GAF7 Y23W E"},
{"idMov":6,"fechaMov":"12/24/2017","descripcionMov":"","importeMov":58054385.78,"IBAN":"IE57 ONVU 3988 8787 4179 69"},
{"idMov":7,"fechaMov":"12/12/2017","descripcionMov":"","importeMov":931500903.23,"IBAN":"DE16 2864 5189 0527 5694 78"},
{"idMov":8,"fechaMov":"6/23/2017","descripcionMov":"","importeMov":401189588.16,"IBAN":"RS56 1319 1551 1808 4011 60"},
{"idMov":9,"fechaMov":"6/3/2017","descripcionMov":"","importeMov":773390079.47,"IBAN":"GE80 NU73 9583 5667 3896 83"},
{"idMov":10,"fechaMov":"8/16/2017","descripcionMov":"","importeMov":259953210.71,"IBAN":"PL35 6646 6615 3262 3531 8023 8542"},
{"idMov":11,"fechaMov":"7/13/2017","descripcionMov":"","importeMov":756233657.47,"IBAN":"ES26 7315 9543 8468 4184 3524"},
{"idMov":12,"fechaMov":"7/30/2017","descripcionMov":"","importeMov":73244761.12,"IBAN":"AT26 8515 5340 7154 9156"},
{"idMov":13,"fechaMov":"7/2/2017","descripcionMov":"","importeMov":131366971.47,"IBAN":"FR27 4219 5663 22FK NWJK 8HTP 030"},
{"idMov":14,"fechaMov":"8/12/2017","descripcionMov":"","importeMov":24497780.55,"IBAN":"MU67 VDHN 2900 5715 1301 6637 772D FD"},
{"idMov":15,"fechaMov":"4/7/2018","descripcionMov":"","importeMov":296303388.81,"IBAN":"DO32 BCID 8280 3093 5344 8233 6097"},
{"idMov":16,"fechaMov":"3/2/2018","descripcionMov":"","importeMov":803550030.21,"IBAN":"HU63 9234 7867 0868 9165 1698 6062"},
{"idMov":17,"fechaMov":"1/15/2018","descripcionMov":"","importeMov":516054551.65,"IBAN":"SM03 K891 0831 227V RM4L 6BRV VM6"},
{"idMov":18,"fechaMov":"3/13/2018","descripcionMov":"","importeMov":793635717.97,"IBAN":"SM28 K353 3770 619U SVXF CRIR WSE"},
{"idMov":19,"fechaMov":"7/19/2017","descripcionMov":"","importeMov":28484319.1,"IBAN":"BR80 1825 0190 9236 6293 0533 253N B"},
{"idMov":20,"fechaMov":"4/9/2018","descripcionMov":"","importeMov":853083866.59,"IBAN":"NO17 7875 6997 110"},
{"idMov":21,"fechaMov":"4/7/2018","descripcionMov":"","importeMov":317165230.72,"IBAN":"FR78 2259 4356 37MU RVJJ S1M5 J88"},
{"idMov":22,"fechaMov":"9/2/2017","descripcionMov":"","importeMov":485987417.72,"IBAN":"FO96 8778 3832 8336 25"},
{"idMov":23,"fechaMov":"9/10/2017","descripcionMov":"","importeMov":981416544.29,"IBAN":"GL95 7629 6091 3401 68"},
{"idMov":24,"fechaMov":"3/27/2018","descripcionMov":"","importeMov":153682625.78,"IBAN":"SK62 0050 3476 1021 8326 1549"},
{"idMov":25,"fechaMov":"10/25/2017","descripcionMov":"","importeMov":341042152.68,"IBAN":"GR28 3669 894C Y0V1 XBMT RASM 6I8"},
{"idMov":26,"fechaMov":"2/26/2018","descripcionMov":"","importeMov":416321548.3,"IBAN":"IL50 9292 9243 2708 9869 581"},
{"idMov":27,"fechaMov":"1/20/2018","descripcionMov":"","importeMov":359826571.3,"IBAN":"RS52 6792 7128 9856 9533 74"},
{"idMov":28,"fechaMov":"3/31/2018","descripcionMov":"","importeMov":476090459.87,"IBAN":"SM36 C685 2047 682N MOAY YGT8 6LQ"},
{"idMov":29,"fechaMov":"4/6/2018","descripcionMov":"","importeMov":548310325.26,"IBAN":"GL27 1773 5695 0081 40"},
{"idMov":30,"fechaMov":"12/6/2017","descripcionMov":"","importeMov":239105582.6,"IBAN":"PK44 CVPB DLGA ZLNB AAP1 8B7I"},
{"idMov":31,"fechaMov":"11/21/2017","descripcionMov":"","importeMov":90988696.4,"IBAN":"MC46 9227 4794 59FZ BSPG LGMI U19"},
{"idMov":32,"fechaMov":"7/16/2017","descripcionMov":"","importeMov":149301633.85,"IBAN":"FO29 4797 8498 5119 41"},
{"idMov":33,"fechaMov":"11/3/2017","descripcionMov":"","importeMov":281777070.54,"IBAN":"LV70 RNOG HRF9 H9BR RUH5 R"},
{"idMov":34,"fechaMov":"8/8/2017","descripcionMov":"","importeMov":59424060.26,"IBAN":"MR70 1764 1034 2091 7467 4020 297"},
{"idMov":35,"fechaMov":"11/4/2017","descripcionMov":"","importeMov":415047649.47,"IBAN":"CY02 5301 1357 6Z0I V1QR 538Y VPFG"},
{"idMov":36,"fechaMov":"5/2/2018","descripcionMov":"","importeMov":743887268.32,"IBAN":"KZ81 007M FST2 K5KQ WYWK"},
{"idMov":37,"fechaMov":"10/28/2017","descripcionMov":"","importeMov":436718519.96,"IBAN":"GR29 2677 462I KQIW SDJR 5YDF X2E"},
{"idMov":38,"fechaMov":"12/18/2017","descripcionMov":"","importeMov":900913800.48,"IBAN":"PS94 VPNR AWYJ LUJO 4NHI MVGQ LM1K S"},
{"idMov":39,"fechaMov":"10/23/2017","descripcionMov":"","importeMov":763533124.17,"IBAN":"LV10 WVHD CS7G DOLK XLUZ U"},
{"idMov":40,"fechaMov":"9/27/2017","descripcionMov":"","importeMov":333732900.87,"IBAN":"GI67 FMGQ SBMP OA31 IN1Z EOG"},
{"idMov":41,"fechaMov":"1/13/2018","descripcionMov":"","importeMov":959345807.93,"IBAN":"EE41 2275 7626 6755 6292"},
{"idMov":42,"fechaMov":"8/7/2017","descripcionMov":"","importeMov":639203709.01,"IBAN":"LV41 ZBKO D5JC YQQS SL25 V"},
{"idMov":43,"fechaMov":"12/1/2017","descripcionMov":"","importeMov":145151478.53,"IBAN":"FR25 2429 1808 25WA QW41 MMLJ Q83"},
{"idMov":44,"fechaMov":"10/24/2017","descripcionMov":"","importeMov":321390026.27,"IBAN":"SA94 57LN ERNA A5V5 IY3M IIJL"},
{"idMov":45,"fechaMov":"7/25/2017","descripcionMov":"","importeMov":553628114.55,"IBAN":"GL08 3565 1457 9836 63"},
{"idMov":46,"fechaMov":"4/12/2018","descripcionMov":"","importeMov":946336075.56,"IBAN":"BA97 7408 8871 3592 5303"},
{"idMov":47,"fechaMov":"7/16/2017","descripcionMov":"","importeMov":755537190.79,"IBAN":"FR90 0102 5287 65AW U6DL QUST 724"},
{"idMov":48,"fechaMov":"7/31/2017","descripcionMov":"","importeMov":363098208.52,"IBAN":"LU65 5972 TPZO 4KSV 5FU6"},
{"idMov":49,"fechaMov":"11/21/2017","descripcionMov":"","importeMov":708375355.28,"IBAN":"SM60 T252 4583 9933 N6TM 0QS7 ZVX"},
{"idMov":50,"fechaMov":"10/17/2017","descripcionMov":"","importeMov":494297919.46,"IBAN":"FR47 7099 7046 50GW WPRW I8U9 U78"},
{"idMov":51,"fechaMov":"4/29/2018","descripcionMov":"","importeMov":336808494.71,"IBAN":"SM38 P522 2283 934H Y7QG CRLM BAF"},
{"idMov":52,"fechaMov":"7/30/2017","descripcionMov":"","importeMov":787837173.43,"IBAN":"EE75 6449 0676 7980 5428"},
{"idMov":53,"fechaMov":"11/13/2017","descripcionMov":"","importeMov":188917276.39,"IBAN":"ES94 3405 9786 5907 5581 3354"},
{"idMov":54,"fechaMov":"11/17/2017","descripcionMov":"","importeMov":806012739.45,"IBAN":"EE80 5749 4790 1174 0188"},
{"idMov":55,"fechaMov":"11/1/2017","descripcionMov":"","importeMov":686264752.88,"IBAN":"GT11 XILF RZ04 UDNR 9TMK 7UO1 BTUL"},
{"idMov":56,"fechaMov":"10/13/2017","descripcionMov":"","importeMov":516178374.78,"IBAN":"CZ66 7111 0732 6578 2690 4109"},
{"idMov":57,"fechaMov":"8/4/2017","descripcionMov":"","importeMov":46154209.34,"IBAN":"KW16 YCXO PYHU JYP0 GCLC LA5O HLX9 JG"},
{"idMov":58,"fechaMov":"5/30/2017","descripcionMov":"","importeMov":80752347.0,"IBAN":"SE10 7840 6837 9143 4700 8095"},
{"idMov":59,"fechaMov":"6/2/2017","descripcionMov":"","importeMov":685654813.82,"IBAN":"VG49 XJYQ 4807 5413 6470 2281"},
{"idMov":60,"fechaMov":"8/25/2017","descripcionMov":"","importeMov":591176112.77,"IBAN":"GR55 2108 611N 6FCL UEPT 8VCC YOR"},
{"idMov":61,"fechaMov":"12/14/2017","descripcionMov":"","importeMov":859087610.24,"IBAN":"FR87 3051 9039 16QV PG57 RMEX I09"},
{"idMov":62,"fechaMov":"8/25/2017","descripcionMov":"","importeMov":228808452.77,"IBAN":"MD24 SD9K 3NFB OHUT DSKK SSTO"},
{"idMov":63,"fechaMov":"4/9/2018","descripcionMov":"","importeMov":268246812.12,"IBAN":"FR39 3918 6206 32A1 M1MW ERHU M43"},
{"idMov":64,"fechaMov":"6/11/2017","descripcionMov":"","importeMov":646495390.86,"IBAN":"AL76 4534 2026 CORU 25MA C7X0 OEBD"},
{"idMov":65,"fechaMov":"10/10/2017","descripcionMov":"","importeMov":426969366.39,"IBAN":"LV26 HXZH HSIH ZQ3M HKHH N"},
{"idMov":66,"fechaMov":"1/3/2018","descripcionMov":"","importeMov":952612125.25,"IBAN":"KZ25 793Y DYRD 4NDL ZV8S"},
{"idMov":67,"fechaMov":"8/22/2017","descripcionMov":"","importeMov":349072702.8,"IBAN":"FR58 8125 7868 57SA 6SHY 0S8Y A97"},
{"idMov":68,"fechaMov":"5/8/2018","descripcionMov":"","importeMov":896413593.78,"IBAN":"HR62 7198 2461 8136 8348 6"},
{"idMov":69,"fechaMov":"4/21/2018","descripcionMov":"","importeMov":505601263.52,"IBAN":"FR03 8270 4492 20OB UHCW RAEA 221"},
{"idMov":70,"fechaMov":"10/25/2017","descripcionMov":"","importeMov":486474909.75,"IBAN":"MK50 428D XEEY C0O0 V60"},
{"idMov":71,"fechaMov":"12/1/2017","descripcionMov":"","importeMov":534024016.25,"IBAN":"MT41 KEJT 1854 6TGF 96DJ YMYH E2OR MVL"},
{"idMov":72,"fechaMov":"6/19/2017","descripcionMov":"","importeMov":226999080.01,"IBAN":"DO43 HLJR 3279 9535 6970 9893 6812"},
{"idMov":73,"fechaMov":"4/20/2018","descripcionMov":"","importeMov":4432467.55,"IBAN":"AD60 5826 2905 IOY4 VKEP HA1B"},
{"idMov":74,"fechaMov":"7/20/2017","descripcionMov":"","importeMov":489424326.67,"IBAN":"KZ53 206M ZWM2 VU7O ZRAY"},
{"idMov":75,"fechaMov":"2/5/2018","descripcionMov":"","importeMov":503210072.43,"IBAN":"RS86 6231 6250 1093 3648 68"},
{"idMov":76,"fechaMov":"1/17/2018","descripcionMov":"","importeMov":115497024.14,"IBAN":"BG50 BQVZ 9975 96XZ 1TZC ZU"},
{"idMov":77,"fechaMov":"7/4/2017","descripcionMov":"","importeMov":83653382.17,"IBAN":"IS98 7228 1406 3127 3868 3534 65"},
{"idMov":78,"fechaMov":"2/17/2018","descripcionMov":"","importeMov":210860989.48,"IBAN":"FR83 4408 2035 55WQ ORRQ 3P3T 261"},
{"idMov":79,"fechaMov":"3/5/2018","descripcionMov":"","importeMov":74062476.84,"IBAN":"CY58 7435 5910 A0IA 6KPS 4PTR OVAY"},
{"idMov":80,"fechaMov":"7/31/2017","descripcionMov":"","importeMov":844208872.69,"IBAN":"FR70 3527 3354 79VH K8KT AC6P V03"},
{"idMov":81,"fechaMov":"6/11/2017","descripcionMov":"","importeMov":756004047.46,"IBAN":"FR86 9444 5773 361J II82 O3BY Z76"},
{"idMov":82,"fechaMov":"1/24/2018","descripcionMov":"","importeMov":980662991.17,"IBAN":"PS39 JNZW XEVT EIH0 WRG1 NGLN QPZR Y"},
{"idMov":83,"fechaMov":"11/5/2017","descripcionMov":"","importeMov":790306902.44,"IBAN":"FR71 1036 7806 409Y MHCD EVM8 T78"},
{"idMov":84,"fechaMov":"10/20/2017","descripcionMov":"","importeMov":878268231.41,"IBAN":"IE81 CMRJ 3506 9822 7445 15"},
{"idMov":85,"fechaMov":"6/5/2017","descripcionMov":"","importeMov":119658305.38,"IBAN":"FR30 8237 9031 59BS AEB5 WGXU T08"},
{"idMov":86,"fechaMov":"4/2/2018","descripcionMov":"","importeMov":441080745.12,"IBAN":"DE31 5378 0038 5337 9749 16"},
{"idMov":87,"fechaMov":"6/22/2017","descripcionMov":"","importeMov":317890614.72,"IBAN":"FR84 4348 0463 41MZ NLY2 L2UK J93"},
{"idMov":88,"fechaMov":"7/25/2017","descripcionMov":"","importeMov":478964171.6,"IBAN":"MC65 0273 9275 65PL 648L IVY5 428"},
{"idMov":89,"fechaMov":"4/6/2018","descripcionMov":"","importeMov":250582879.6,"IBAN":"HU42 4482 5533 2513 8609 4898 9595"},
{"idMov":90,"fechaMov":"6/29/2017","descripcionMov":"","importeMov":598784794.46,"IBAN":"LU91 853G K9IX FPHC W6IA"},
{"idMov":91,"fechaMov":"11/13/2017","descripcionMov":"","importeMov":34830616.65,"IBAN":"BR15 4283 3570 8104 3830 0213 445B E"},
{"idMov":92,"fechaMov":"3/28/2018","descripcionMov":"","importeMov":592921699.96,"IBAN":"CZ10 3148 0458 0616 8990 2142"},
{"idMov":93,"fechaMov":"5/1/2018","descripcionMov":"","importeMov":828188539.42,"IBAN":"AT96 6492 2899 6018 0577"},
{"idMov":94,"fechaMov":"5/3/2018","descripcionMov":"","importeMov":820651180.4,"IBAN":"FR88 9567 6976 7390 TQTE ROWX W00"},
{"idMov":95,"fechaMov":"2/25/2018","descripcionMov":"","importeMov":985752643.44,"IBAN":"IL49 8620 9469 5326 7965 769"},
{"idMov":96,"fechaMov":"8/19/2017","descripcionMov":"","importeMov":814408135.64,"IBAN":"AT92 1822 9920 1865 2458"},
{"idMov":97,"fechaMov":"10/13/2017","descripcionMov":"","importeMov":982262552.92,"IBAN":"BE74 3680 3572 7069"},
{"idMov":98,"fechaMov":"9/6/2017","descripcionMov":"","importeMov":798273105.39,"IBAN":"FR94 1589 5805 93SV 5XJI 63VT 136"},
{"idMov":99,"fechaMov":"8/21/2017","descripcionMov":"","importeMov":653289522.31,"IBAN":"IS78 6749 0058 8741 4487 1709 60"},
{"idMov":100,"fechaMov":"3/18/2018","descripcionMov":"","importeMov":12828706.41,"IBAN":"BR04 2724 6153 3178 6787 0998 798Q A"}]